\relax 
\providecommand\hyper@newdestlabel[2]{}
\providecommand\HyperFirstAtBeginDocument{\AtBeginDocument}
\HyperFirstAtBeginDocument{\ifx\hyper@anchor\@undefined
\global\let\oldcontentsline\contentsline
\gdef\contentsline#1#2#3#4{\oldcontentsline{#1}{#2}{#3}}
\global\let\oldnewlabel\newlabel
\gdef\newlabel#1#2{\newlabelxx{#1}#2}
\gdef\newlabelxx#1#2#3#4#5#6{\oldnewlabel{#1}{{#2}{#3}}}
\AtEndDocument{\ifx\hyper@anchor\@undefined
\let\contentsline\oldcontentsline
\let\newlabel\oldnewlabel
\fi}
\fi}
\global\let\hyper@last\relax 
\gdef\HyperFirstAtBeginDocument#1{#1}
\providecommand\HyField@AuxAddToFields[1]{}
\providecommand\HyField@AuxAddToCoFields[2]{}
\citation{climate2014}
\citation{californiadrought}
\citation{capetownwater}
\citation{kwon2018connected,assem2017urban}
\citation{bejarano2019,defazio2018nycer}
\citation{lafferty2001conditional}
\citation{wytock2013sparse}
\@writefile{toc}{\contentsline {section}{Abstract}{1}{section*.1}}
\@writefile{toc}{\contentsline {section}{\numberline {1}Introduction}{1}{section.1}}
\newlabel{sec:intro}{{1}{1}{Introduction}{section.1}{}}
\citation{tull2016much,kwon2018connected,kofinas2016daily,assem2017urban,jabbari2018application}
\citation{CANDELIERI2015844}
\citation{kofinas2016daily}
\citation{assem2017urban}
\citation{bejarano2018predictive}
\citation{foster2013predictors,fisher2015understanding}
\citation{endo2017review,ALI2018104,RAMBO20173837,hoff2011understanding}
\citation{WANG2018821,borowik2018time}
\citation{mason2018forecasting}
\citation{arjunan2015openban,bejarano2019,zhang2018practical}
\citation{arjunan2015openban}
\citation{kang2017prediction}
\citation{mittal2016spotgarbage}
\citation{deeplane,yabe2017cityflowfragility,bhardwaj2017autocalib}
\citation{chen2018staring,melzi2016hourly}
\@writefile{toc}{\contentsline {section}{\numberline {2}Related Work}{2}{section.2}}
\newlabel{sec:related}{{2}{2}{Related Work}{section.2}{}}
\@writefile{toc}{\contentsline {section}{\numberline {3}Problem Statement and Data}{2}{section.3}}
\newlabel{sec:data}{{3}{2}{Problem Statement and Data}{section.3}{}}
\@writefile{toc}{\contentsline {subsection}{\numberline {3.1}Problem Statement}{2}{subsection.3.1}}
\@writefile{toc}{\contentsline {subsection}{\numberline {3.2}Data}{2}{subsection.3.2}}
\newlabel{subsec:data}{{3.2}{2}{Data}{subsection.3.2}{}}
\providecommand*\caption@xref[2]{\@setref\relax\@undefined{#1}}
\newlabel{1a}{{1a}{3}{Subfigure 1a}{subfigure.1.1}{}}
\newlabel{sub@1a}{{(a)}{a}{Subfigure 1a\relax }{subfigure.1.1}{}}
\newlabel{1b}{{1b}{3}{Subfigure 1b}{subfigure.1.2}{}}
\newlabel{sub@1b}{{(b)}{b}{Subfigure 1b\relax }{subfigure.1.2}{}}
\newlabel{1c}{{1c}{3}{Subfigure 1c}{subfigure.1.3}{}}
\newlabel{sub@1c}{{(c)}{c}{Subfigure 1c\relax }{subfigure.1.3}{}}
\newlabel{1d}{{1d}{3}{Subfigure 1d}{subfigure.1.4}{}}
\newlabel{sub@1d}{{(d)}{d}{Subfigure 1d\relax }{subfigure.1.4}{}}
\@writefile{lof}{\contentsline {figure}{\numberline {1}{\ignorespaces Trends in datasets (daily consumption)\relax }}{3}{figure.caption.5}}
\newlabel{fig:trend}{{1}{3}{Trends in datasets (daily consumption)\relax }{figure.caption.5}{}}
\@writefile{lof}{\contentsline {subfigure}{\numberline{(a)}{\ignorespaces {Gym GE}}}{3}{subfigure.1.1}}
\@writefile{lof}{\contentsline {subfigure}{\numberline{(b)}{\ignorespaces {Dining Hall C4}}}{3}{subfigure.1.2}}
\@writefile{lof}{\contentsline {subfigure}{\numberline{(c)}{\ignorespaces {Residence Hall RA}}}{3}{subfigure.1.3}}
\@writefile{lof}{\contentsline {subfigure}{\numberline{(d)}{\ignorespaces {Academic Building S2}}}{3}{subfigure.1.4}}
\newlabel{ha}{{2a}{3}{Subfigure 2a}{subfigure.2.1}{}}
\newlabel{sub@ha}{{(a)}{a}{Subfigure 2a\relax }{subfigure.2.1}{}}
\newlabel{hb}{{2b}{3}{Subfigure 2b}{subfigure.2.2}{}}
\newlabel{sub@hb}{{(b)}{b}{Subfigure 2b\relax }{subfigure.2.2}{}}
\newlabel{hc}{{2c}{3}{Subfigure 2c}{subfigure.2.3}{}}
\newlabel{sub@hc}{{(c)}{c}{Subfigure 2c\relax }{subfigure.2.3}{}}
\newlabel{hd}{{2d}{3}{Subfigure 2d}{subfigure.2.4}{}}
\newlabel{sub@hd}{{(d)}{d}{Subfigure 2d\relax }{subfigure.2.4}{}}
\@writefile{lof}{\contentsline {figure}{\numberline {2}{\ignorespaces Trends in datasets (hourly consumption)\relax }}{3}{figure.caption.6}}
\newlabel{fig:hourly}{{2}{3}{Trends in datasets (hourly consumption)\relax }{figure.caption.6}{}}
\@writefile{lof}{\contentsline {subfigure}{\numberline{(a)}{\ignorespaces {Gym GE}}}{3}{subfigure.2.1}}
\@writefile{lof}{\contentsline {subfigure}{\numberline{(b)}{\ignorespaces {Dining Hall C4}}}{3}{subfigure.2.2}}
\@writefile{lof}{\contentsline {subfigure}{\numberline{(c)}{\ignorespaces {Residence Hall RA}}}{3}{subfigure.2.3}}
\@writefile{lof}{\contentsline {subfigure}{\numberline{(d)}{\ignorespaces {Academic Building S2}}}{3}{subfigure.2.4}}
\@writefile{lot}{\contentsline {table}{\numberline {1}{\ignorespaces Median Water Consumption\relax }}{3}{table.caption.7}}
\newlabel{tab1}{{1}{3}{Median Water Consumption\relax }{table.caption.7}{}}
\@writefile{toc}{\contentsline {section}{\numberline {4}SW\lowercase {a}P: Smart Water Prediction}{3}{section.4}}
\newlabel{sec:models}{{4}{3}{SW\lowercase {a}P: Smart Water Prediction}{section.4}{}}
\citation{bejarano2019,assem2017urban}
\citation{wytock2013sparse}
\citation{wytock2013sparse}
\citation{wytock2013sparse}
\@writefile{toc}{\contentsline {subsection}{\numberline {4.1}Why Sequence-to-Sequence Models?}{4}{subsection.4.1}}
\@writefile{lof}{\contentsline {figure}{\numberline {3}{\ignorespaces System Architecture\relax }}{4}{figure.caption.8}}
\newlabel{fig:architecture}{{3}{4}{System Architecture\relax }{figure.caption.8}{}}
\@writefile{toc}{\contentsline {subsection}{\numberline {4.2}Sparse GCRF Model}{4}{subsection.4.2}}
\newlabel{sec:gcrf}{{4.2}{4}{Sparse GCRF Model}{subsection.4.2}{}}
\newlabel{eqn:gcrf}{{1}{4}{Sparse GCRF Model}{equation.4.1}{}}
\citation{hochreiter1998vanishing}
\citation{goodfellow2016deep}
\citation{cholearning}
\@writefile{lof}{\contentsline {figure}{\numberline {4}{\ignorespaces GCRF water consumption prediction model showing connections between historical consumption, $x_1$,...,$x_n$ and $y_{n+1}$, ...,$y_{n+k}$, and among $y_{n+1}$, ...,$y_{n+k}$. Note that our model is sparse, learning only edges between variables that matter. In the graphical model, we illustrate this by leaving out some edges.\relax }}{5}{figure.caption.9}}
\newlabel{fig:gcrfmodel}{{4}{5}{GCRF water consumption prediction model showing connections between historical consumption, $x_1$,...,$x_n$ and $y_{n+1}$, ...,$y_{n+k}$, and among $y_{n+1}$, ...,$y_{n+k}$. Note that our model is sparse, learning only edges between variables that matter. In the graphical model, we illustrate this by leaving out some edges.\relax }{figure.caption.9}{}}
\newlabel{sec:gcrfimp}{{4.2.1}{5}{Implementation Details}{subsubsection.4.2.1}{}}
\@writefile{toc}{\contentsline {subsubsection}{\numberline {4.2.1}Implementation Details}{5}{subsubsection.4.2.1}}
\@writefile{lof}{\contentsline {figure}{\numberline {5}{\ignorespaces GCRF Training and Test Setup\relax }}{5}{figure.caption.10}}
\newlabel{fig:gcrf}{{5}{5}{GCRF Training and Test Setup\relax }{figure.caption.10}{}}
\@writefile{toc}{\contentsline {subsection}{\numberline {4.3}RNN Encoder-Decoder Model}{5}{subsection.4.3}}
\newlabel{eqn:rnn}{{2}{5}{RNN Encoder-Decoder Model}{equation.4.2}{}}
\@writefile{lof}{\contentsline {figure}{\numberline {6}{\ignorespaces Encoder-decoder based RNN\relax }}{5}{figure.caption.11}}
\newlabel{fig:RNN}{{6}{5}{Encoder-decoder based RNN\relax }{figure.caption.11}{}}
\@writefile{toc}{\contentsline {subsubsection}{\numberline {4.3.1}Implementation Details}{5}{subsubsection.4.3.1}}
\citation{codepaper}
\@writefile{toc}{\contentsline {section}{\numberline {5}Performance Evaluation}{6}{section.5}}
\newlabel{sec:experiment}{{5}{6}{Performance Evaluation}{section.5}{}}
\newlabel{eq:ARIMA}{{3}{6}{Performance Evaluation}{equation.5.3}{}}
\@writefile{lot}{\contentsline {table}{\numberline {2}{\ignorespaces RMSE\relax }}{6}{table.caption.12}}
\newlabel{tab:RMSE}{{2}{6}{RMSE\relax }{subtable.2.2}{}}
\@writefile{lot}{\contentsline {subtable}{\numberline{(a)}{\ignorespaces {Hour 1}}}{6}{subtable.2.1}}
\@writefile{lot}{\contentsline {subtable}{\numberline{(b)}{\ignorespaces {Average}}}{6}{subtable.2.2}}
\newlabel{eq:RMSE}{{4}{6}{Performance Evaluation}{equation.5.4}{}}
\newlabel{eq:RE}{{5}{6}{Performance Evaluation}{equation.5.5}{}}
\newlabel{2a}{{7a}{7}{Subfigure 7a}{subfigure.7.1}{}}
\newlabel{sub@2a}{{(a)}{a}{Subfigure 7a\relax }{subfigure.7.1}{}}
\newlabel{2b}{{7b}{7}{Subfigure 7b}{subfigure.7.2}{}}
\newlabel{sub@2b}{{(b)}{b}{Subfigure 7b\relax }{subfigure.7.2}{}}
\newlabel{2c}{{7c}{7}{Subfigure 7c}{subfigure.7.3}{}}
\newlabel{sub@2c}{{(c)}{c}{Subfigure 7c\relax }{subfigure.7.3}{}}
\newlabel{2d}{{7d}{7}{Subfigure 7d}{subfigure.7.4}{}}
\newlabel{sub@2d}{{(d)}{d}{Subfigure 7d\relax }{subfigure.7.4}{}}
\@writefile{lof}{\contentsline {figure}{\numberline {7}{\ignorespaces RMSE\relax }}{7}{figure.caption.13}}
\newlabel{fig:rmse}{{7}{7}{RMSE\relax }{figure.caption.13}{}}
\@writefile{lof}{\contentsline {subfigure}{\numberline{(a)}{\ignorespaces {Gym GE}}}{7}{subfigure.7.1}}
\@writefile{lof}{\contentsline {subfigure}{\numberline{(b)}{\ignorespaces {Dining Hall C4}}}{7}{subfigure.7.2}}
\@writefile{lof}{\contentsline {subfigure}{\numberline{(c)}{\ignorespaces {Residence Hall RA}}}{7}{subfigure.7.3}}
\@writefile{lof}{\contentsline {subfigure}{\numberline{(d)}{\ignorespaces {Academic Building S2}}}{7}{subfigure.7.4}}
\@writefile{toc}{\contentsline {subsection}{\numberline {5.1}RMSE}{7}{subsection.5.1}}
\newlabel{2a}{{8a}{7}{Subfigure 8a}{subfigure.8.1}{}}
\newlabel{sub@2a}{{(a)}{a}{Subfigure 8a\relax }{subfigure.8.1}{}}
\newlabel{2b}{{8b}{7}{Subfigure 8b}{subfigure.8.2}{}}
\newlabel{sub@2b}{{(b)}{b}{Subfigure 8b\relax }{subfigure.8.2}{}}
\newlabel{2c}{{8c}{7}{Subfigure 8c}{subfigure.8.3}{}}
\newlabel{sub@2c}{{(c)}{c}{Subfigure 8c\relax }{subfigure.8.3}{}}
\newlabel{2d}{{8d}{7}{Subfigure 8d}{subfigure.8.4}{}}
\newlabel{sub@2d}{{(d)}{d}{Subfigure 8d\relax }{subfigure.8.4}{}}
\@writefile{lof}{\contentsline {figure}{\numberline {8}{\ignorespaces MAE\relax }}{7}{figure.caption.14}}
\newlabel{fig:mae}{{8}{7}{MAE\relax }{figure.caption.14}{}}
\@writefile{lof}{\contentsline {subfigure}{\numberline{(a)}{\ignorespaces {Gym GE}}}{7}{subfigure.8.1}}
\@writefile{lof}{\contentsline {subfigure}{\numberline{(b)}{\ignorespaces {Dining Hall C4}}}{7}{subfigure.8.2}}
\@writefile{lof}{\contentsline {subfigure}{\numberline{(c)}{\ignorespaces {Residence Hall RA}}}{7}{subfigure.8.3}}
\@writefile{lof}{\contentsline {subfigure}{\numberline{(d)}{\ignorespaces {Academic Building S2}}}{7}{subfigure.8.4}}
\@writefile{lot}{\contentsline {table}{\numberline {3}{\ignorespaces MAE\relax }}{8}{table.caption.15}}
\newlabel{tab:MAE}{{3}{8}{MAE\relax }{subtable.3.2}{}}
\@writefile{lot}{\contentsline {subtable}{\numberline{(a)}{\ignorespaces {Hour 1}}}{8}{subtable.3.1}}
\@writefile{lot}{\contentsline {subtable}{\numberline{(b)}{\ignorespaces {Average}}}{8}{subtable.3.2}}
\@writefile{toc}{\contentsline {subsection}{\numberline {5.2}MAE}{8}{subsection.5.2}}
\@writefile{toc}{\contentsline {subsection}{\numberline {5.3}Qualitative Results}{8}{subsection.5.3}}
\@writefile{toc}{\contentsline {subsection}{\numberline {5.4}Adding Temporal Features}{8}{subsection.5.4}}
\@writefile{lot}{\contentsline {table}{\numberline {4}{\ignorespaces Percentage improvement after adding features\relax }}{8}{table.caption.18}}
\newlabel{tab:features}{{4}{8}{Percentage improvement after adding features\relax }{table.caption.18}{}}
\@writefile{toc}{\contentsline {subsection}{\numberline {5.5}Varying Sequence Length}{8}{subsection.5.5}}
\newlabel{qa}{{9a}{9}{Subfigure 9a}{subfigure.9.1}{}}
\newlabel{sub@qa}{{(a)}{a}{Subfigure 9a\relax }{subfigure.9.1}{}}
\newlabel{qb}{{9b}{9}{Subfigure 9b}{subfigure.9.2}{}}
\newlabel{sub@qb}{{(b)}{b}{Subfigure 9b\relax }{subfigure.9.2}{}}
\@writefile{lof}{\contentsline {figure}{\numberline {9}{\ignorespaces Qualitative Results: GCRF vs Linear Regression\relax }}{9}{figure.caption.16}}
\newlabel{fig:qual1}{{9}{9}{Qualitative Results: GCRF vs Linear Regression\relax }{figure.caption.16}{}}
\@writefile{lof}{\contentsline {subfigure}{\numberline{(a)}{\ignorespaces {Residence Hall RA: Hour 1}}}{9}{subfigure.9.1}}
\@writefile{lof}{\contentsline {subfigure}{\numberline{(b)}{\ignorespaces {Residence Hall RA: Hour 12}}}{9}{subfigure.9.2}}
\newlabel{qc}{{10a}{9}{Subfigure 10a}{subfigure.10.1}{}}
\newlabel{sub@qc}{{(a)}{a}{Subfigure 10a\relax }{subfigure.10.1}{}}
\newlabel{qd}{{10b}{9}{Subfigure 10b}{subfigure.10.2}{}}
\newlabel{sub@qd}{{(b)}{b}{Subfigure 10b\relax }{subfigure.10.2}{}}
\@writefile{lof}{\contentsline {figure}{\numberline {10}{\ignorespaces Qualitative Results: LSTM vs ARIMA\relax }}{9}{figure.caption.17}}
\newlabel{fig:qual2}{{10}{9}{Qualitative Results: LSTM vs ARIMA\relax }{figure.caption.17}{}}
\@writefile{lof}{\contentsline {subfigure}{\numberline{(a)}{\ignorespaces {Residence Hall RA: Day 1}}}{9}{subfigure.10.1}}
\@writefile{lof}{\contentsline {subfigure}{\numberline{(b)}{\ignorespaces {Residence Hall RA: Day 12}}}{9}{subfigure.10.2}}
\@writefile{lot}{\contentsline {table}{\numberline {5}{\ignorespaces RMSE Varying Sequence Length\relax }}{9}{table.caption.19}}
\newlabel{tab:sequence}{{5}{9}{RMSE Varying Sequence Length\relax }{table.caption.19}{}}
\@writefile{toc}{\contentsline {subsection}{\numberline {5.6}Discussion on {\bf  SW\lowercase {a}P}'s practicality}{9}{subsection.5.6}}
\bibstyle{ACM-Reference-Format}
\bibdata{references}
\bibcite{climate2014}{{1}{2014}{{cli}}{{??}}}
\bibcite{californiadrought}{{2}{2019}{{cal}}{{??}}}
\bibcite{codepaper}{{3}{2019}{{cod}}{{??}}}
\bibcite{capetownwater}{{4}{2019}{{cap}}{{??}}}
\bibcite{ALI2018104}{{5}{2018}{{Ali}}{{Ali}}}
\bibcite{arjunan2015openban}{{6}{2015}{{Arjunan et~al\unhbox \voidb@x \hbox {.}}}{{Arjunan, Srivastava, Singh, and Singh}}}
\bibcite{assem2017urban}{{7}{2017}{{Assem et~al\unhbox \voidb@x \hbox {.}}}{{Assem, Ghariba, Makrai, Johnston, Gill, and Pilla}}}
\bibcite{bejarano2019}{{8}{2019}{{Bejarano et~al\unhbox \voidb@x \hbox {.}}}{{Bejarano, DeFazio, and Ramesh}}}
\bibcite{bejarano2018predictive}{{9}{2018}{{Bejarano et~al\unhbox \voidb@x \hbox {.}}}{{Bejarano, Jain, Ramesh, Seetharam, and Mishra}}}
\bibcite{deeplane}{{10}{2018}{{Bhandari et~al\unhbox \voidb@x \hbox {.}}}{{Bhandari, Nambi, Padmanabhan, and Raman}}}
\bibcite{bhardwaj2017autocalib}{{11}{2017}{{Bhardwaj et~al\unhbox \voidb@x \hbox {.}}}{{Bhardwaj, Tummala, Ramalingam, Ramjee, and Sinha}}}
\bibcite{borowik2018time}{{12}{2018}{{Borowik et~al\unhbox \voidb@x \hbox {.}}}{{Borowik, Wawrzyniak, and Cichosz}}}
\bibcite{CANDELIERI2015844}{{13}{2015}{{Candelieri et~al\unhbox \voidb@x \hbox {.}}}{{Candelieri, Soldi, and Archetti}}}
\bibcite{chen2018staring}{{14}{2018}{{Chen et~al\unhbox \voidb@x \hbox {.}}}{{Chen, Breda, and Irwin}}}
\bibcite{cholearning}{{15}{[n.d.]}{{Cho et~al\unhbox \voidb@x \hbox {.}}}{{Cho, Gulcehre, Bahdanau, Schwenk, and Bengio}}}
\bibcite{defazio2018nycer}{{16}{2018}{{DeFazio et~al\unhbox \voidb@x \hbox {.}}}{{DeFazio, Ramesh, and Seetharam}}}
\bibcite{endo2017review}{{17}{2017}{{Endo et~al\unhbox \voidb@x \hbox {.}}}{{Endo, Tsurita, Burnett, and Orencio}}}
\bibcite{fisher2015understanding}{{18}{2015}{{Fisher et~al\unhbox \voidb@x \hbox {.}}}{{Fisher, Shields, Chan, Christenson, Cronk, Leker, Samani, Apoya, Lutz, and Bartram}}}
\bibcite{foster2013predictors}{{19}{2013}{{Foster}}{{Foster}}}
\bibcite{goodfellow2016deep}{{20}{2016}{{Goodfellow et~al\unhbox \voidb@x \hbox {.}}}{{Goodfellow, Bengio, and Courville}}}
\bibcite{hochreiter1998vanishing}{{21}{1998}{{Hochreiter}}{{Hochreiter}}}
\bibcite{hoff2011understanding}{{22}{2011}{{Hoff}}{{Hoff}}}
\bibcite{jabbari2018application}{{23}{2018}{{Jabbari and Bae}}{{Jabbari and Bae}}}
\bibcite{kang2017prediction}{{24}{2017}{{Kang and Kang}}{{Kang and Kang}}}
\bibcite{kofinas2016daily}{{25}{2016}{{Kofinas et~al\unhbox \voidb@x \hbox {.}}}{{Kofinas, Papageorgiou, Laspidou, Mellios, and Kokkinos}}}
\bibcite{kwon2018connected}{{26}{2018}{{Kwon et~al\unhbox \voidb@x \hbox {.}}}{{Kwon, Fischer, Flintham, and Colley}}}
\bibcite{lafferty2001conditional}{{27}{2001}{{Lafferty et~al\unhbox \voidb@x \hbox {.}}}{{Lafferty, McCallum, and Pereira}}}
\bibcite{mason2018forecasting}{{28}{2018}{{Mason et~al\unhbox \voidb@x \hbox {.}}}{{Mason, Duggan, and Howley}}}
\bibcite{melzi2016hourly}{{29}{2016}{{Melzi et~al\unhbox \voidb@x \hbox {.}}}{{Melzi, Touati, Same, and Oukhellou}}}
\bibcite{mittal2016spotgarbage}{{30}{2016}{{Mittal et~al\unhbox \voidb@x \hbox {.}}}{{Mittal, Yagnik, Garg, and Krishnan}}}
\bibcite{RAMBO20173837}{{31}{2017}{{Rambo et~al\unhbox \voidb@x \hbox {.}}}{{Rambo, Warsinger, Shanbhogue, V, and Ghoniem}}}
\bibcite{tull2016much}{{32}{[n.d.]}{{Tull et~al\unhbox \voidb@x \hbox {.}}}{{Tull, Schmitt, and Atwater}}}
\bibcite{WANG2018821}{{33}{2018}{{Wang et~al\unhbox \voidb@x \hbox {.}}}{{Wang, Li, and Li}}}
\bibcite{wytock2013sparse}{{34}{2013}{{Wytock and Kolter}}{{Wytock and Kolter}}}
\bibcite{yabe2017cityflowfragility}{{35}{2017}{{Yabe et~al\unhbox \voidb@x \hbox {.}}}{{Yabe, Tsubouchi, and Sekimoto}}}
\bibcite{zhang2018practical}{{36}{2018}{{Zhang and Lam}}{{Zhang and Lam}}}
\newlabel{tocindent-1}{0pt}
\newlabel{tocindent0}{0pt}
\newlabel{tocindent1}{4.185pt}
\newlabel{tocindent2}{10.34999pt}
\newlabel{tocindent3}{18.198pt}
\@writefile{toc}{\contentsline {section}{\numberline {6}Conclusion}{10}{section.6}}
\newlabel{sec:conclusion}{{6}{10}{Conclusion}{section.6}{}}
\@writefile{toc}{\contentsline {section}{References}{10}{section*.21}}
\newlabel{TotPages}{{10}{10}{}{page.10}{}}
