%!PS-Adobe-3.0 EPSF-3.0
%%Creator: (MATLAB, The Mathworks, Inc. Version 9.2.0.556344 \(R2017a\). Operating System: Linux)
%%Title: ../Graphs/Data/SubType/utility.eps
%%CreationDate: 2020-04-10T01:08:14
%%Pages: (atend)
%%BoundingBox:    17     1   381   299
%%LanguageLevel: 3
%%EndComments
%%BeginProlog
%%BeginResource: procset (Apache XML Graphics Std ProcSet) 1.2 0
%%Version: 1.2 0
%%Copyright: (Copyright 2001-2003,2010 The Apache Software Foundation. License terms: http://www.apache.org/licenses/LICENSE-2.0)
/bd{bind def}bind def
/ld{load def}bd
/GR/grestore ld
/M/moveto ld
/LJ/setlinejoin ld
/C/curveto ld
/f/fill ld
/LW/setlinewidth ld
/GC/setgray ld
/t/show ld
/N/newpath ld
/CT/concat ld
/cp/closepath ld
/S/stroke ld
/L/lineto ld
/CC/setcmykcolor ld
/A/ashow ld
/GS/gsave ld
/RC/setrgbcolor ld
/RM/rmoveto ld
/ML/setmiterlimit ld
/re {4 2 roll M
1 index 0 rlineto
0 exch rlineto
neg 0 rlineto
cp } bd
/_ctm matrix def
/_tm matrix def
/BT { _ctm currentmatrix pop matrix _tm copy pop 0 0 moveto } bd
/ET { _ctm setmatrix } bd
/iTm { _ctm setmatrix _tm concat } bd
/Tm { _tm astore pop iTm 0 0 moveto } bd
/ux 0.0 def
/uy 0.0 def
/F {
  /Tp exch def
  /Tf exch def
  Tf findfont Tp scalefont setfont
  /cf Tf def  /cs Tp def
} bd
/ULS {currentpoint /uy exch def /ux exch def} bd
/ULE {
  /Tcx currentpoint pop def
  gsave
  newpath
  cf findfont cs scalefont dup
  /FontMatrix get 0 get /Ts exch def /FontInfo get dup
  /UnderlinePosition get Ts mul /To exch def
  /UnderlineThickness get Ts mul /Tt exch def
  ux uy To add moveto  Tcx uy To add lineto
  Tt setlinewidth stroke
  grestore
} bd
/OLE {
  /Tcx currentpoint pop def
  gsave
  newpath
  cf findfont cs scalefont dup
  /FontMatrix get 0 get /Ts exch def /FontInfo get dup
  /UnderlinePosition get Ts mul /To exch def
  /UnderlineThickness get Ts mul /Tt exch def
  ux uy To add cs add moveto Tcx uy To add cs add lineto
  Tt setlinewidth stroke
  grestore
} bd
/SOE {
  /Tcx currentpoint pop def
  gsave
  newpath
  cf findfont cs scalefont dup
  /FontMatrix get 0 get /Ts exch def /FontInfo get dup
  /UnderlinePosition get Ts mul /To exch def
  /UnderlineThickness get Ts mul /Tt exch def
  ux uy To add cs 10 mul 26 idiv add moveto Tcx uy To add cs 10 mul 26 idiv add lineto
  Tt setlinewidth stroke
  grestore
} bd
/QT {
/Y22 exch store
/X22 exch store
/Y21 exch store
/X21 exch store
currentpoint
/Y21 load 2 mul add 3 div exch
/X21 load 2 mul add 3 div exch
/X21 load 2 mul /X22 load add 3 div
/Y21 load 2 mul /Y22 load add 3 div
/X22 load /Y22 load curveto
} bd
/SSPD {
dup length /d exch dict def
{
/v exch def
/k exch def
currentpagedevice k known {
/cpdv currentpagedevice k get def
v cpdv ne {
/upd false def
/nullv v type /nulltype eq def
/nullcpdv cpdv type /nulltype eq def
nullv nullcpdv or
{
/upd true def
} {
/sametype v type cpdv type eq def
sametype {
v type /arraytype eq {
/vlen v length def
/cpdvlen cpdv length def
vlen cpdvlen eq {
0 1 vlen 1 sub {
/i exch def
/obj v i get def
/cpdobj cpdv i get def
obj cpdobj ne {
/upd true def
exit
} if
} for
} {
/upd true def
} ifelse
} {
v type /dicttype eq {
v {
/dv exch def
/dk exch def
/cpddv cpdv dk get def
dv cpddv ne {
/upd true def
exit
} if
} forall
} {
/upd true def
} ifelse
} ifelse
} if
} ifelse
upd true eq {
d k v put
} if
} if
} if
} forall
d length 0 gt {
d setpagedevice
} if
} bd
/RE { % /NewFontName [NewEncodingArray] /FontName RE -
  findfont dup length dict begin
  {
    1 index /FID ne
    {def} {pop pop} ifelse
  } forall
  /Encoding exch def
  /FontName 1 index def
  currentdict definefont pop
  end
} bind def
%%EndResource
%%BeginResource: procset (Apache XML Graphics EPS ProcSet) 1.0 0
%%Version: 1.0 0
%%Copyright: (Copyright 2002-2003 The Apache Software Foundation. License terms: http://www.apache.org/licenses/LICENSE-2.0)
/BeginEPSF { %def
/b4_Inc_state save def         % Save state for cleanup
/dict_count countdictstack def % Count objects on dict stack
/op_count count 1 sub def      % Count objects on operand stack
userdict begin                 % Push userdict on dict stack
/showpage { } def              % Redefine showpage, { } = null proc
0 setgray 0 setlinecap         % Prepare graphics state
1 setlinewidth 0 setlinejoin
10 setmiterlimit [ ] 0 setdash newpath
/languagelevel where           % If level not equal to 1 then
{pop languagelevel             % set strokeadjust and
1 ne                           % overprint to their defaults.
{false setstrokeadjust false setoverprint
} if
} if
} bd
/EndEPSF { %def
count op_count sub {pop} repeat            % Clean up stacks
countdictstack dict_count sub {end} repeat
b4_Inc_state restore
} bd
%%EndResource
%FOPBeginFontDict
%%IncludeResource: font Courier-Bold
%%IncludeResource: font Helvetica
%%IncludeResource: font Courier-BoldOblique
%%IncludeResource: font Courier-Oblique
%%IncludeResource: font Times-Roman
%%IncludeResource: font Helvetica-BoldOblique
%%IncludeResource: font Helvetica-Bold
%%IncludeResource: font Helvetica-Oblique
%%IncludeResource: font Times-BoldItalic
%%IncludeResource: font Courier
%%IncludeResource: font Times-Italic
%%IncludeResource: font Times-Bold
%%IncludeResource: font Symbol
%%IncludeResource: font ZapfDingbats
%FOPEndFontDict
%%BeginResource: encoding WinAnsiEncoding
/WinAnsiEncoding [
/.notdef /.notdef /.notdef /.notdef /.notdef
/.notdef /.notdef /.notdef /.notdef /.notdef
/.notdef /.notdef /.notdef /.notdef /.notdef
/.notdef /.notdef /.notdef /.notdef /.notdef
/.notdef /.notdef /.notdef /.notdef /.notdef
/.notdef /.notdef /.notdef /.notdef /.notdef
/.notdef /.notdef /space /exclam /quotedbl
/numbersign /dollar /percent /ampersand /quotesingle
/parenleft /parenright /asterisk /plus /comma
/hyphen /period /slash /zero /one
/two /three /four /five /six
/seven /eight /nine /colon /semicolon
/less /equal /greater /question /at
/A /B /C /D /E
/F /G /H /I /J
/K /L /M /N /O
/P /Q /R /S /T
/U /V /W /X /Y
/Z /bracketleft /backslash /bracketright /asciicircum
/underscore /quoteleft /a /b /c
/d /e /f /g /h
/i /j /k /l /m
/n /o /p /q /r
/s /t /u /v /w
/x /y /z /braceleft /bar
/braceright /asciitilde /bullet /Euro /bullet
/quotesinglbase /florin /quotedblbase /ellipsis /dagger
/daggerdbl /circumflex /perthousand /Scaron /guilsinglleft
/OE /bullet /Zcaron /bullet /bullet
/quoteleft /quoteright /quotedblleft /quotedblright /bullet
/endash /emdash /asciitilde /trademark /scaron
/guilsinglright /oe /bullet /zcaron /Ydieresis
/space /exclamdown /cent /sterling /currency
/yen /brokenbar /section /dieresis /copyright
/ordfeminine /guillemotleft /logicalnot /sfthyphen /registered
/macron /degree /plusminus /twosuperior /threesuperior
/acute /mu /paragraph /middot /cedilla
/onesuperior /ordmasculine /guillemotright /onequarter /onehalf
/threequarters /questiondown /Agrave /Aacute /Acircumflex
/Atilde /Adieresis /Aring /AE /Ccedilla
/Egrave /Eacute /Ecircumflex /Edieresis /Igrave
/Iacute /Icircumflex /Idieresis /Eth /Ntilde
/Ograve /Oacute /Ocircumflex /Otilde /Odieresis
/multiply /Oslash /Ugrave /Uacute /Ucircumflex
/Udieresis /Yacute /Thorn /germandbls /agrave
/aacute /acircumflex /atilde /adieresis /aring
/ae /ccedilla /egrave /eacute /ecircumflex
/edieresis /igrave /iacute /icircumflex /idieresis
/eth /ntilde /ograve /oacute /ocircumflex
/otilde /odieresis /divide /oslash /ugrave
/uacute /ucircumflex /udieresis /yacute /thorn
/ydieresis
] def
%%EndResource
%FOPBeginFontReencode
/Courier-Bold findfont
dup length dict begin
  {1 index /FID ne {def} {pop pop} ifelse} forall
  /Encoding WinAnsiEncoding def
  currentdict
end
/Courier-Bold exch definefont pop
/Helvetica findfont
dup length dict begin
  {1 index /FID ne {def} {pop pop} ifelse} forall
  /Encoding WinAnsiEncoding def
  currentdict
end
/Helvetica exch definefont pop
/Courier-BoldOblique findfont
dup length dict begin
  {1 index /FID ne {def} {pop pop} ifelse} forall
  /Encoding WinAnsiEncoding def
  currentdict
end
/Courier-BoldOblique exch definefont pop
/Courier-Oblique findfont
dup length dict begin
  {1 index /FID ne {def} {pop pop} ifelse} forall
  /Encoding WinAnsiEncoding def
  currentdict
end
/Courier-Oblique exch definefont pop
/Times-Roman findfont
dup length dict begin
  {1 index /FID ne {def} {pop pop} ifelse} forall
  /Encoding WinAnsiEncoding def
  currentdict
end
/Times-Roman exch definefont pop
/Helvetica-BoldOblique findfont
dup length dict begin
  {1 index /FID ne {def} {pop pop} ifelse} forall
  /Encoding WinAnsiEncoding def
  currentdict
end
/Helvetica-BoldOblique exch definefont pop
/Helvetica-Bold findfont
dup length dict begin
  {1 index /FID ne {def} {pop pop} ifelse} forall
  /Encoding WinAnsiEncoding def
  currentdict
end
/Helvetica-Bold exch definefont pop
/Helvetica-Oblique findfont
dup length dict begin
  {1 index /FID ne {def} {pop pop} ifelse} forall
  /Encoding WinAnsiEncoding def
  currentdict
end
/Helvetica-Oblique exch definefont pop
/Times-BoldItalic findfont
dup length dict begin
  {1 index /FID ne {def} {pop pop} ifelse} forall
  /Encoding WinAnsiEncoding def
  currentdict
end
/Times-BoldItalic exch definefont pop
/Courier findfont
dup length dict begin
  {1 index /FID ne {def} {pop pop} ifelse} forall
  /Encoding WinAnsiEncoding def
  currentdict
end
/Courier exch definefont pop
/Times-Italic findfont
dup length dict begin
  {1 index /FID ne {def} {pop pop} ifelse} forall
  /Encoding WinAnsiEncoding def
  currentdict
end
/Times-Italic exch definefont pop
/Times-Bold findfont
dup length dict begin
  {1 index /FID ne {def} {pop pop} ifelse} forall
  /Encoding WinAnsiEncoding def
  currentdict
end
/Times-Bold exch definefont pop
%FOPEndFontReencode
%%EndProlog
%%Page: 1 1
%%PageBoundingBox: 0 0 420 315
%%BeginPageSetup
[1 0 0 -1 0 315] CT
%%EndPageSetup
GS
[0.75 0 0 0.75 0 0] CT
1 GC
N
0 0 560 420 re
f
GR
GS
[0.75 0 0 0.75 0 0] CT
1 GC
N
0 0 560 420 re
f
GR
GS
[0.75 0 0 0.75 0 0] CT
1 GC
N
109 240 M
507 240 L
507 31 L
109 31 L
cp
f
GR
GS
[0.75 0 0 0.75 0 0] CT
0.149 GC
1 LJ
0.667 LW
N
109 240 M
507 240 L
S
GR
GS
[0.75 0 0 0.75 0 0] CT
0.239 0.149 0.659 RC
N
115.633 240 M
168.7 240 L
168.7 72.382 L
115.633 72.382 L
cp
f
GR
GS
[0.75 0 0 0.75 0 0] CT
0.239 0.149 0.659 RC
N
181.967 240 M
235.033 240 L
235.033 132.574 L
181.967 132.574 L
cp
f
GR
GS
[0.75 0 0 0.75 0 0] CT
0.239 0.149 0.659 RC
N
248.3 240 M
301.367 240 L
301.367 177.718 L
248.3 177.718 L
cp
f
GR
GS
[0.75 0 0 0.75 0 0] CT
0.239 0.149 0.659 RC
N
314.633 240 M
367.7 240 L
367.7 192.348 L
314.633 192.348 L
cp
f
GR
GS
[0.75 0 0 0.75 0 0] CT
0.239 0.149 0.659 RC
N
380.967 240 M
434.033 240 L
434.033 206.56 L
380.967 206.56 L
cp
f
GR
GS
[0.75 0 0 0.75 0 0] CT
0.239 0.149 0.659 RC
N
447.3 240 M
500.367 240 L
500.367 207.396 L
447.3 207.396 L
cp
f
GR
GS
[0.75 0 0 0.75 0 0] CT
10.0 ML
0.667 LW
N
115.633 240 M
115.633 72.382 L
168.7 72.382 L
168.7 240 L
cp
S
GR
GS
[0.75 0 0 0.75 0 0] CT
10.0 ML
0.667 LW
N
181.967 240 M
181.967 132.574 L
235.033 132.574 L
235.033 240 L
cp
S
GR
GS
[0.75 0 0 0.75 0 0] CT
10.0 ML
0.667 LW
N
248.3 240 M
248.3 177.718 L
301.367 177.718 L
301.367 240 L
cp
S
GR
GS
[0.75 0 0 0.75 0 0] CT
10.0 ML
0.667 LW
N
314.633 240 M
314.633 192.348 L
367.7 192.348 L
367.7 240 L
cp
S
GR
GS
[0.75 0 0 0.75 0 0] CT
10.0 ML
0.667 LW
N
380.967 240 M
380.967 206.56 L
434.033 206.56 L
434.033 240 L
cp
S
GR
GS
[0.75 0 0 0.75 0 0] CT
10.0 ML
0.667 LW
N
447.3 240 M
447.3 207.396 L
500.367 207.396 L
500.367 240 L
cp
S
GR
GS
[0.75 0 0 0.75 0 0] CT
0.149 GC
2 setlinecap
1 LJ
0.667 LW
N
109 240 M
507 240 L
S
GR
GS
[0.75 0 0 0.75 0 0] CT
0.149 GC
2 setlinecap
1 LJ
0.667 LW
N
109 31 M
507 31 L
S
GR
GS
[0.75 0 0 0.75 0 0] CT
0.149 GC
2 setlinecap
1 LJ
0.667 LW
N
142.167 240 M
142.167 236.03 L
S
GR
GS
[0.75 0 0 0.75 0 0] CT
0.149 GC
2 setlinecap
1 LJ
0.667 LW
N
208.5 240 M
208.5 236.03 L
S
GR
GS
[0.75 0 0 0.75 0 0] CT
0.149 GC
2 setlinecap
1 LJ
0.667 LW
N
274.833 240 M
274.833 236.03 L
S
GR
GS
[0.75 0 0 0.75 0 0] CT
0.149 GC
2 setlinecap
1 LJ
0.667 LW
N
341.167 240 M
341.167 236.03 L
S
GR
GS
[0.75 0 0 0.75 0 0] CT
0.149 GC
2 setlinecap
1 LJ
0.667 LW
N
407.5 240 M
407.5 236.03 L
S
GR
GS
[0.75 0 0 0.75 0 0] CT
0.149 GC
2 setlinecap
1 LJ
0.667 LW
N
473.833 240 M
473.833 236.03 L
S
GR
GS
[0.75 0 0 0.75 0 0] CT
0.149 GC
2 setlinecap
1 LJ
0.667 LW
N
142.167 31 M
142.167 34.97 L
S
GR
GS
[0.75 0 0 0.75 0 0] CT
0.149 GC
2 setlinecap
1 LJ
0.667 LW
N
208.5 31 M
208.5 34.97 L
S
GR
GS
[0.75 0 0 0.75 0 0] CT
0.149 GC
2 setlinecap
1 LJ
0.667 LW
N
274.833 31 M
274.833 34.97 L
S
GR
GS
[0.75 0 0 0.75 0 0] CT
0.149 GC
2 setlinecap
1 LJ
0.667 LW
N
341.167 31 M
341.167 34.97 L
S
GR
GS
[0.75 0 0 0.75 0 0] CT
0.149 GC
2 setlinecap
1 LJ
0.667 LW
N
407.5 31 M
407.5 34.97 L
S
GR
GS
[0.75 0 0 0.75 0 0] CT
0.149 GC
2 setlinecap
1 LJ
0.667 LW
N
473.833 31 M
473.833 34.97 L
S
GR
GS
[0.64952 -0.375 0.375 0.64952 106.625 185.4] CT
0.149 GC
/Times-Roman 22.667 F
GS
[1 0 0 1 0 0] CT
-132 22 moveto 
1 -1 scale
(Water Main) t 
GR
GR
GS
[0.64952 -0.375 0.375 0.64952 156.375 185.4] CT
0.149 GC
/Times-Roman 22.667 F
GS
[1 0 0 1 0 0] CT
-163 22 moveto 
1 -1 scale
(Power Outage) t 
GR
GR
GS
[0.64952 -0.375 0.375 0.64952 206.12501 185.4] CT
0.149 GC
/Times-Roman 22.667 F
GS
[1 0 0 1 0 0] CT
-66 22 moveto 
1 -1 scale
(Other) t 
GR
GR
GS
[0.64952 -0.375 0.375 0.64952 255.87499 185.4] CT
0.149 GC
/Times-Roman 22.667 F
GS
[1 0 0 1 0 0] CT
-218 22 moveto 
1 -1 scale
(Water Service Line) t 
GR
GR
GS
[0.64952 -0.375 0.375 0.64952 305.625 185.4] CT
0.149 GC
/Times-Roman 22.667 F
GS
[1 0 0 1 0 0] CT
-44 22 moveto 
1 -1 scale
(Gas) t 
GR
GR
GS
[0.64952 -0.375 0.375 0.64952 355.37501 185.4] CT
0.149 GC
/Times-Roman 22.667 F
GS
[1 0 0 1 0 0] CT
-98 22 moveto 
1 -1 scale
(Manhole) t 
GR
GR
GS
[0.75 0 0 0.75 231.00014 286.33653] CT
0.149 GC
/Times-Roman 32 F
GS
[1 0 0 1 0 0] CT
-83.5 30 moveto 
1 -1 scale
(Sub Types) t 
GR
GR
GS
[0.75 0 0 0.75 0 0] CT
0.149 GC
2 setlinecap
1 LJ
0.667 LW
N
109 240 M
109 31 L
S
GR
GS
[0.75 0 0 0.75 0 0] CT
0.149 GC
2 setlinecap
1 LJ
0.667 LW
N
507 240 M
507 31 L
S
GR
GS
[0.75 0 0 0.75 0 0] CT
0.149 GC
2 setlinecap
1 LJ
0.667 LW
N
109 240 M
112.97 240 L
S
GR
GS
[0.75 0 0 0.75 0 0] CT
0.149 GC
2 setlinecap
1 LJ
0.667 LW
N
109 198.2 M
112.97 198.2 L
S
GR
GS
[0.75 0 0 0.75 0 0] CT
0.149 GC
2 setlinecap
1 LJ
0.667 LW
N
109 156.4 M
112.97 156.4 L
S
GR
GS
[0.75 0 0 0.75 0 0] CT
0.149 GC
2 setlinecap
1 LJ
0.667 LW
N
109 114.6 M
112.97 114.6 L
S
GR
GS
[0.75 0 0 0.75 0 0] CT
0.149 GC
2 setlinecap
1 LJ
0.667 LW
N
109 72.8 M
112.97 72.8 L
S
GR
GS
[0.75 0 0 0.75 0 0] CT
0.149 GC
2 setlinecap
1 LJ
0.667 LW
N
109 31 M
112.97 31 L
S
GR
GS
[0.75 0 0 0.75 0 0] CT
0.149 GC
2 setlinecap
1 LJ
0.667 LW
N
507 240 M
503.03 240 L
S
GR
GS
[0.75 0 0 0.75 0 0] CT
0.149 GC
2 setlinecap
1 LJ
0.667 LW
N
507 198.2 M
503.03 198.2 L
S
GR
GS
[0.75 0 0 0.75 0 0] CT
0.149 GC
2 setlinecap
1 LJ
0.667 LW
N
507 156.4 M
503.03 156.4 L
S
GR
GS
[0.75 0 0 0.75 0 0] CT
0.149 GC
2 setlinecap
1 LJ
0.667 LW
N
507 114.6 M
503.03 114.6 L
S
GR
GS
[0.75 0 0 0.75 0 0] CT
0.149 GC
2 setlinecap
1 LJ
0.667 LW
N
507 72.8 M
503.03 72.8 L
S
GR
GS
[0.75 0 0 0.75 0 0] CT
0.149 GC
2 setlinecap
1 LJ
0.667 LW
N
507 31 M
503.03 31 L
S
GR
GS
[0.75 0 0 0.75 76.35 180] CT
0.149 GC
/Times-Roman 22.667 F
GS
[1 0 0 1 0 0] CT
-15 8 moveto 
1 -1 scale
(0) t 
GR
GR
GS
[0.75 0 0 0.75 76.35 148.65] CT
0.149 GC
/Times-Roman 22.667 F
GS
[1 0 0 1 0 0] CT
-44 8 moveto 
1 -1 scale
(100) t 
GR
GR
GS
[0.75 0 0 0.75 76.35 117.3] CT
0.149 GC
/Times-Roman 22.667 F
GS
[1 0 0 1 0 0] CT
-44 8 moveto 
1 -1 scale
(200) t 
GR
GR
GS
[0.75 0 0 0.75 76.35 85.95] CT
0.149 GC
/Times-Roman 22.667 F
GS
[1 0 0 1 0 0] CT
-44 8 moveto 
1 -1 scale
(300) t 
GR
GR
GS
[0.75 0 0 0.75 76.35 54.6] CT
0.149 GC
/Times-Roman 22.667 F
GS
[1 0 0 1 0 0] CT
-44 8 moveto 
1 -1 scale
(400) t 
GR
GR
GS
[0.75 0 0 0.75 76.35 23.25] CT
0.149 GC
/Times-Roman 22.667 F
GS
[1 0 0 1 0 0] CT
-44 8 moveto 
1 -1 scale
(500) t 
GR
GR
GS
[0 -0.75 0.75 0 41.1 101.62492] CT
0.149 GC
/Times-Roman 32 F
GS
[1 0 0 1 0 0] CT
-72.5 -8 moveto 
1 -1 scale
(# events) t 
GR
GR
%%Trailer
%%Pages: 1
%%EOF
